dumpfile.vcd
$date
	Sat Aug 04 22:16:36 2018
$end
$version
	Icarus Verilog
$end
$timescale
	100ns
$end
$scope module test_bench $end
$scope module clkdiv $end
$var wire 32 ! fenmu [31:0] $end
$var wire 32 " fenzi [31:0] $end
$var wire 1 # refclk $end
$var wire 1 $ rstn $end
$var reg 1 % clkout $end
$var reg 32 & cnt [31:0] $end
$var reg 3 ' rstn_syn [2:0] $end
$upscope $end
$upscope $end
$enddefinitions $end
#0
$dumpvars
bx '
bx &
x%
0$
0#
b0 "
b0 !
$end
#1000
1$
#2000
b1001 !
b10011 "
0#
#2200
0%
bx1 '
#2500
1#
#2700
bx11 '
#3000
0#
0$
#3500
1#
#3700
b110 '
#4000
0#
1$
#4500
1#
#4700
b101 '
#5000
0#
#5500
1#
#5700
b11 '
#5900
b0 &
#6000
0#
#6500
1#
#6700
b111 '
#7000
0#
#7500
1#
#7700
b1001 &
#8000
0#
#8500
1#
#8700
1%
b10010 &
#9000
0#
#9500
1#
#9700
b11011 &
#10000
0#
#10500
1#
#10700
0%
b10001 &
#11000
0#
#11500
1#
#11700
1%
b11010 &
#12000
0#
#12500
1#
#12700
0%
b10000 &
#13000
0#
#13500
1#
#13700
1%
b11001 &
#14000
0#
#14500
1#
#14700
0%
b1111 &
#15000
0#
#15500
1#
#15700
1%
b11000 &
#16000
0#
#16500
1#
#16700
0%
b1110 &
#17000
0#
#17500
1#
#17700
1%
b10111 &
#18000
0#
#18500
1#
#18700
0%
b1101 &
#19000
0#
#19500
1#
#19700
1%
b10110 &
#20000
0#
#20500
1#
#20700
0%
b1100 &
#21000
0#
#21500
1#
#21700
1%
b10101 &
#22000
0#
#22500
1#
#22700
0%
b1011 &
#23000
0#
#23500
1#
#23700
1%
b10100 &
#24000
0#
#24500
1#
#24700
0%
b1010 &
#25000
0#
#25500
1#
#25700
1%
b10011 &
#26000
0#
#26500
1#
#26700
0%
b1001 &
#27000
0#
#27500
1#
#27700
1%
b10010 &
#28000
0#
#28500
1#
#28700
b11011 &
#29000
0#
#29500
1#
#29700
0%
b10001 &
#30000
0#
#30500
1#
#30700
1%
b11010 &
#31000
0#
#31500
1#
#31700
0%
b10000 &
#32000
0#
#32500
1#
#32700
1%
b11001 &
#33000
0#
#33500
1#
#33700
0%
b1111 &
#34000
0#
#34500
1#
#34700
1%
b11000 &
#35000
0#
#35500
1#
#35700
0%
b1110 &
#36000
0#
#36500
1#
#36700
1%
b10111 &
#37000
0#
#37500
1#
#37700
0%
b1101 &
#38000
0#
#38500
1#
#38700
1%
b10110 &
#39000
0#
#39500
1#
#39700
0%
b1100 &
#40000
0#
#40500
1#
#40700
1%
b10101 &
#41000
0#
#41500
1#
#41700
0%
b1011 &
#42000
0#
#42500
1#
#42700
1%
b10100 &
#43000
0#
#43500
1#
#43700
0%
b1010 &
#44000
0#
#44500
1#
#44700
1%
b10011 &
#45000
0#
#45500
1#
#45700
0%
b1001 &
#46000
0#
#46500
1#
#46700
1%
b10010 &
#47000
0#
#47500
1#
#47700
b11011 &
#48000
0#
#48500
1#
#48700
0%
b10001 &
#49000
0#
#49500
1#
#49700
1%
b11010 &
#50000
0#
#50500
1#
#50700
0%
b10000 &
#51000
0#
#51500
1#
#51700
1%
b11001 &
#52000
0#
#52500
1#
#52700
0%
b1111 &
#53000
0#
#53500
1#
#53700
1%
b11000 &
#54000
0#
#54500
1#
#54700
0%
b1110 &
#55000
0#
#55500
1#
#55700
1%
b10111 &
#56000
0#
#56500
1#
#56700
0%
b1101 &
#57000
0#
#57500
1#
#57700
1%
b10110 &
#58000
0#
#58500
1#
#58700
0%
b1100 &
#59000
0#
#59500
1#
#59700
1%
b10101 &
#60000
0#
#60500
1#
#60700
0%
b1011 &
#61000
0#
#61500
1#
#61700
1%
b10100 &
#62000
0#
#62500
1#
#62700
0%
b1010 &
#63000
0#
#63500
1#
#63700
1%
b10011 &
#64000
0#
#64500
1#
#64700
0%
b1001 &
#65000
0#
#65500
1#
#65700
1%
b10010 &
#66000
0#
#66500
1#
#66700
b11011 &
#67000
0#
#67500
1#
#67700
0%
b10001 &
#68000
0#
#68500
1#
#68700
1%
b11010 &
#69000
0#
#69500
1#
#69700
0%
b10000 &
#70000
0#
#70500
1#
#70700
1%
b11001 &
#71000
0#
#71500
1#
#71700
0%
b1111 &
#72000
0#
#72500
1#
#72700
1%
b11000 &
#73000
0#
#73500
1#
#73700
0%
b1110 &
#74000
0#
#74500
1#
#74700
1%
b10111 &
#75000
0#
#75500
1#
#75700
0%
b1101 &
#76000
0#
#76500
1#
#76700
1%
b10110 &
#77000
0#
#77500
1#
#77700
0%
b1100 &
#78000
0#
#78500
1#
#78700
1%
b10101 &
#79000
0#
#79500
1#
#79700
0%
b1011 &
#80000
0#
#80500
1#
#80700
1%
b10100 &
#81000
0#
#81500
1#
#81700
0%
b1010 &
#82000
0#
#82500
1#
#82700
1%
b10011 &
#83000
0#
#83500
1#
#83700
0%
b1001 &
#84000
0#
#84500
1#
#84700
1%
b10010 &
#85000
0#
#85500
1#
#85700
b11011 &
#86000
0#
#86500
1#
#86700
0%
b10001 &
#87000
0#
#87500
1#
#87700
1%
b11010 &
#88000
0#
#88500
1#
#88700
0%
b10000 &
#89000
0#
#89500
1#
#89700
1%
b11001 &
#90000
0#
#90500
1#
#90700
0%
b1111 &
#91000
0#
#91500
1#
#91700
1%
b11000 &
#92000
0#
#92500
1#
#92700
0%
b1110 &
#93000
0#
#93500
1#
#93700
1%
b10111 &
#94000
0#
#94500
1#
#94700
0%
b1101 &
#95000
0#
#95500
1#
#95700
1%
b10110 &
#96000
0#
#96500
1#
#96700
0%
b1100 &
#97000
0#
#97500
1#
#97700
1%
b10101 &
#98000
0#
#98500
1#
#98700
0%
b1011 &
#99000
0#
#99500
1#
#99700
1%
b10100 &
#100000
0#
#100500
1#
#100700
0%
b1010 &
#101000
0#
#101500
1#
#101700
1%
b10011 &
#102000
0#
#102500
1#
#102700
0%
b1001 &
#103000
0#
#103500
1#
#103700
1%
b10010 &
